......
----------------------------------------------------------------------
Ran 6 tests in 0.002s

OK
Name               Stmts   Miss Branch BrPart  Cover   Missing
--------------------------------------------------------------
Diplomacy.py          81      0     54      1    99%   57->49
TestDiplomacy.py      38      0      2      1    98%   73->exit
--------------------------------------------------------------
TOTAL                119      0     56      2    99%
