.........
----------------------------------------------------------------------
Ran 9 tests in 0.002s

OK
Name               Stmts   Miss Branch BrPart  Cover   Missing
--------------------------------------------------------------
Diplomacy.py          87      1     40      2    98%   83->84, 84, 135->129
TestDiplomacy.py      51      0      2      1    98%   87->exit
--------------------------------------------------------------
TOTAL                138      1     42      3    98%
